EESchema Schematic File Version 2
LIBS:power
LIBS:device
LIBS:transistors
LIBS:conn
LIBS:linear
LIBS:regul
LIBS:74xx
LIBS:cmos4000
LIBS:adc-dac
LIBS:memory
LIBS:xilinx
LIBS:microcontrollers
LIBS:dsp
LIBS:microchip
LIBS:analog_switches
LIBS:motorola
LIBS:texas
LIBS:intel
LIBS:audio
LIBS:interface
LIBS:digital-audio
LIBS:philips
LIBS:display
LIBS:cypress
LIBS:siliconi
LIBS:opto
LIBS:atmel
LIBS:contrib
LIBS:valves
LIBS:knielsenlib
LIBS:w_microcontrollers
LIBS:STM32F042
LIBS:controller2-cache
EELAYER 25 0
EELAYER END
$Descr A4 11693 8268
encoding utf-8
Sheet 1 1
Title ""
Date ""
Rev ""
Comp ""
Comment1 ""
Comment2 ""
Comment3 ""
Comment4 ""
$EndDescr
Text Label 2050 2250 0    60   ~ 0
ROW1
Text Label 2050 2150 0    60   ~ 0
ROW2
Text Label 2050 2050 0    60   ~ 0
ROW3
Text Label 2050 1950 0    60   ~ 0
ROW4
Text Label 2050 3550 0    60   ~ 0
ROW5
Text Label 6800 2450 1    60   ~ 0
COL1
Text Label 6900 2450 1    60   ~ 0
COL2
Text Label 7000 2450 1    60   ~ 0
COL3
Text Label 7100 2450 1    60   ~ 0
COL4
Text Label 7200 2450 1    60   ~ 0
COL5
Text Label 7300 2450 1    60   ~ 0
COL6
Text Label 7400 2450 1    60   ~ 0
COL7
Text Label 7500 2450 1    60   ~ 0
COL8
Text Label 7600 2450 1    60   ~ 0
COL9
Text Label 7700 2450 1    60   ~ 0
COL10
Text Label 7800 2450 1    60   ~ 0
COL11
Text Label 7900 2450 1    60   ~ 0
COL12
Text Label 8000 2450 1    60   ~ 0
COL13
Text Label 8100 2450 1    60   ~ 0
COL14
Text Label 8200 2450 1    60   ~ 0
COL15
Text Label 8300 2450 1    60   ~ 0
COL16
$Comp
L USB_OTG P2
U 1 1 58F3F04A
P 5400 1350
F 0 "P2" H 5725 1225 50  0000 C CNN
F 1 "USB_OTG" H 5400 1550 50  0000 C CNN
F 2 "Connect:USB_Micro-B" V 5350 1250 50  0001 C CNN
F 3 "" V 5350 1250 50  0000 C CNN
	1    5400 1350
	1    0    0    -1  
$EndComp
Text Label 5400 2500 1    60   ~ 0
USB_DP
Text Label 5300 2500 1    60   ~ 0
USB_DM
$Comp
L GND #PWR01
U 1 1 58F3F1E0
P 5600 1900
F 0 "#PWR01" H 5600 1650 50  0001 C CNN
F 1 "GND" H 5600 1750 50  0000 C CNN
F 2 "" H 5600 1900 50  0000 C CNN
F 3 "" H 5600 1900 50  0000 C CNN
	1    5600 1900
	1    0    0    -1  
$EndComp
$Comp
L +5V #PWR02
U 1 1 58F3F23E
P 5000 1650
F 0 "#PWR02" H 5000 1500 50  0001 C CNN
F 1 "+5V" H 5000 1790 50  0000 C CNN
F 2 "" H 5000 1650 50  0000 C CNN
F 3 "" H 5000 1650 50  0000 C CNN
	1    5000 1650
	1    0    0    -1  
$EndComp
Text Notes 2450 900  0    60   ~ 0
µc
Text Notes 5300 800  0    60   ~ 0
usb
Text Notes 7400 800  0    60   ~ 0
kb conn
$Comp
L LD1117S33TR U4
U 1 1 58F428D6
P 9850 1450
F 0 "U4" H 9850 1700 50  0000 C CNN
F 1 "LD1117S33TR" H 9850 1650 50  0000 C CNN
F 2 "TO_SOT_Packages_SMD:SOT-223" H 9850 1550 50  0000 C CNN
F 3 "" H 9850 1450 50  0000 C CNN
	1    9850 1450
	1    0    0    -1  
$EndComp
$Comp
L GND #PWR03
U 1 1 58F4299A
P 9850 1900
F 0 "#PWR03" H 9850 1650 50  0001 C CNN
F 1 "GND" H 9850 1750 50  0000 C CNN
F 2 "" H 9850 1900 50  0000 C CNN
F 3 "" H 9850 1900 50  0000 C CNN
	1    9850 1900
	1    0    0    -1  
$EndComp
$Comp
L C C1
U 1 1 58F42A4D
P 9300 1600
F 0 "C1" H 9325 1700 50  0000 L CNN
F 1 "C" H 9325 1500 50  0000 L CNN
F 2 "Capacitors_SMD:C_0805_HandSoldering" H 9338 1450 50  0001 C CNN
F 3 "" H 9300 1600 50  0000 C CNN
	1    9300 1600
	1    0    0    -1  
$EndComp
$Comp
L +5V #PWR04
U 1 1 58F42C22
P 9150 1300
F 0 "#PWR04" H 9150 1150 50  0001 C CNN
F 1 "+5V" H 9150 1440 50  0000 C CNN
F 2 "" H 9150 1300 50  0000 C CNN
F 3 "" H 9150 1300 50  0000 C CNN
	1    9150 1300
	1    0    0    -1  
$EndComp
$Comp
L +3V3 #PWR05
U 1 1 58F42CCD
P 10350 1300
F 0 "#PWR05" H 10350 1150 50  0001 C CNN
F 1 "+3V3" H 10350 1440 50  0000 C CNN
F 2 "" H 10350 1300 50  0000 C CNN
F 3 "" H 10350 1300 50  0000 C CNN
	1    10350 1300
	1    0    0    -1  
$EndComp
$Comp
L C C2
U 1 1 58F42D98
P 10350 1600
F 0 "C2" H 10375 1700 50  0000 L CNN
F 1 "C" H 10375 1500 50  0000 L CNN
F 2 "Capacitors_SMD:C_0805_HandSoldering" H 10388 1450 50  0001 C CNN
F 3 "" H 10350 1600 50  0000 C CNN
	1    10350 1600
	1    0    0    -1  
$EndComp
$Comp
L C C3
U 1 1 58F42EDE
P 10550 1600
F 0 "C3" H 10575 1700 50  0000 L CNN
F 1 "C" H 10575 1500 50  0000 L CNN
F 2 "Capacitors_SMD:C_0805_HandSoldering" H 10588 1450 50  0001 C CNN
F 3 "" H 10550 1600 50  0000 C CNN
	1    10550 1600
	1    0    0    -1  
$EndComp
$Comp
L C C4
U 1 1 58F43174
P 10750 1600
F 0 "C4" H 10775 1700 50  0000 L CNN
F 1 "C" H 10775 1500 50  0000 L CNN
F 2 "Capacitors_SMD:C_0805_HandSoldering" H 10788 1450 50  0001 C CNN
F 3 "" H 10750 1600 50  0000 C CNN
	1    10750 1600
	1    0    0    -1  
$EndComp
Text Notes 9950 800  0    60   ~ 0
power
Text Label 7200 1150 3    60   ~ 0
UART2_RX
Text Label 7300 1150 3    60   ~ 0
UART2_TX
$Comp
L C C5
U 1 1 58F44B79
P 10950 1600
F 0 "C5" H 10975 1700 50  0000 L CNN
F 1 "C" H 10975 1500 50  0000 L CNN
F 2 "Capacitors_SMD:C_0805_HandSoldering" H 10988 1450 50  0001 C CNN
F 3 "" H 10950 1600 50  0000 C CNN
	1    10950 1600
	1    0    0    -1  
$EndComp
$Comp
L LED D1
U 1 1 58F45EC5
P 8150 3750
F 0 "D1" H 8150 3850 50  0000 C CNN
F 1 "~" H 8150 3650 50  0000 C CNN
F 2 "LEDs:LED_0805" H 8150 3750 50  0001 C CNN
F 3 "" H 8150 3750 50  0000 C CNN
	1    8150 3750
	1    0    0    -1  
$EndComp
$Comp
L LED D2
U 1 1 58F45F26
P 8150 4150
F 0 "D2" H 8150 4250 50  0000 C CNN
F 1 "~" H 8150 4050 50  0000 C CNN
F 2 "LEDs:LED_0805" H 8150 4150 50  0001 C CNN
F 3 "" H 8150 4150 50  0000 C CNN
	1    8150 4150
	1    0    0    -1  
$EndComp
$Comp
L R R5
U 1 1 58F45FC7
P 8600 3750
F 0 "R5" V 8680 3750 50  0000 C CNN
F 1 "~" V 8600 3750 50  0000 C CNN
F 2 "Resistors_SMD:R_0805_HandSoldering" V 8530 3750 50  0001 C CNN
F 3 "" H 8600 3750 50  0000 C CNN
	1    8600 3750
	0    1    1    0   
$EndComp
$Comp
L R R6
U 1 1 58F4602A
P 8600 4150
F 0 "R6" V 8680 4150 50  0000 C CNN
F 1 "~" V 8600 4150 50  0000 C CNN
F 2 "Resistors_SMD:R_0805_HandSoldering" V 8530 4150 50  0001 C CNN
F 3 "" H 8600 4150 50  0000 C CNN
	1    8600 4150
	0    1    1    0   
$EndComp
$Comp
L +3V3 #PWR08
U 1 1 58F461DC
P 8850 3650
F 0 "#PWR08" H 8850 3500 50  0001 C CNN
F 1 "+3V3" H 8850 3790 50  0000 C CNN
F 2 "" H 8850 3650 50  0000 C CNN
F 3 "" H 8850 3650 50  0000 C CNN
	1    8850 3650
	1    0    0    -1  
$EndComp
Text Label 7700 4150 0    60   ~ 0
LED2
Text Label 7700 3750 0    60   ~ 0
LED1
Text Notes 9100 3200 0    60   ~ 0
leds
Text Notes 5450 3400 0    60   ~ 0
iic / uart1\n
$Comp
L CONN_01X04 iic1
U 1 1 58F4726F
P 6000 4050
F 0 "iic1" H 6000 4300 50  0000 C CNN
F 1 "~" V 6100 4050 50  0000 C CNN
F 2 "Pin_Headers:Pin_Header_Straight_1x04" H 6000 4050 50  0001 C CNN
F 3 "" H 6000 4050 50  0000 C CNN
	1    6000 4050
	1    0    0    -1  
$EndComp
Text Label 5350 4000 0    60   ~ 0
I2C1_SDA
Text Label 5350 3900 0    60   ~ 0
I2C1_SCL
$Comp
L GND #PWR09
U 1 1 58F47947
P 5600 4300
F 0 "#PWR09" H 5600 4050 50  0001 C CNN
F 1 "GND" H 5600 4150 50  0000 C CNN
F 2 "" H 5600 4300 50  0000 C CNN
F 3 "" H 5600 4300 50  0000 C CNN
	1    5600 4300
	1    0    0    -1  
$EndComp
$Comp
L +3V3 #PWR010
U 1 1 58F479AB
P 5250 3600
F 0 "#PWR010" H 5250 3450 50  0001 C CNN
F 1 "+3V3" H 5250 3740 50  0000 C CNN
F 2 "" H 5250 3600 50  0000 C CNN
F 3 "" H 5250 3600 50  0000 C CNN
	1    5250 3600
	1    0    0    -1  
$EndComp
$Comp
L C C6
U 1 1 58F56B7D
P 10350 2300
F 0 "C6" H 10375 2400 50  0000 L CNN
F 1 "4u7" H 10375 2200 50  0000 L CNN
F 2 "Capacitors_SMD:C_0805_HandSoldering" H 10388 2150 50  0001 C CNN
F 3 "" H 10350 2300 50  0000 C CNN
	1    10350 2300
	1    0    0    -1  
$EndComp
$Comp
L GND #PWR011
U 1 1 58F56CFD
P 10350 2550
F 0 "#PWR011" H 10350 2300 50  0001 C CNN
F 1 "GND" H 10350 2400 50  0000 C CNN
F 2 "" H 10350 2550 50  0000 C CNN
F 3 "" H 10350 2550 50  0000 C CNN
	1    10350 2550
	1    0    0    -1  
$EndComp
$Comp
L +3V3 #PWR012
U 1 1 58F56DBC
P 10350 2050
F 0 "#PWR012" H 10350 1900 50  0001 C CNN
F 1 "+3V3" H 10350 2190 50  0000 C CNN
F 2 "" H 10350 2050 50  0000 C CNN
F 3 "" H 10350 2050 50  0000 C CNN
	1    10350 2050
	1    0    0    -1  
$EndComp
$Comp
L STM32F042 U1
U 1 1 58F5D9E7
P 3100 4200
F 0 "U1" H 3100 4100 50  0000 C CNN
F 1 "STM32F042" H 3100 4300 50  0000 C CNN
F 2 "w_smd_lqfp:lqfp48" H 3100 4200 50  0001 C CNN
F 3 "DOCUMENTATION" H 3100 4200 50  0001 C CNN
	1    3100 4200
	1    0    0    -1  
$EndComp
$Comp
L +3V3 #PWR013
U 1 1 58F5EC38
P 1500 1650
F 0 "#PWR013" H 1500 1500 50  0001 C CNN
F 1 "+3V3" H 1500 1790 50  0000 C CNN
F 2 "" H 1500 1650 50  0000 C CNN
F 3 "" H 1500 1650 50  0000 C CNN
	1    1500 1650
	1    0    0    -1  
$EndComp
$Comp
L GND #PWR014
U 1 1 58F5EDC4
P 1600 6600
F 0 "#PWR014" H 1600 6350 50  0001 C CNN
F 1 "GND" H 1600 6450 50  0000 C CNN
F 2 "" H 1600 6600 50  0000 C CNN
F 3 "" H 1600 6600 50  0000 C CNN
	1    1600 6600
	1    0    0    -1  
$EndComp
Text Label 2000 2850 0    60   ~ 0
COL1
Text Label 2000 2750 0    60   ~ 0
COL2
Text Label 2000 2350 0    60   ~ 0
COL3
Text Label 2000 4250 0    60   ~ 0
COL4
Text Label 2000 4350 0    60   ~ 0
COL5
Text Label 2000 4450 0    60   ~ 0
COL6
Text Label 2000 4550 0    60   ~ 0
COL7
Text Label 2000 4650 0    60   ~ 0
COL8
Text Label 2000 4750 0    60   ~ 0
COL9
Text Label 2000 4850 0    60   ~ 0
COL10
Text Label 2000 5550 0    60   ~ 0
COL11
Text Label 2000 5650 0    60   ~ 0
COL12
Text Label 2000 5750 0    60   ~ 0
COL13
Text Label 2000 5850 0    60   ~ 0
COL14
Text Label 2000 6250 0    60   ~ 0
COL15
Text Label 2000 6350 0    60   ~ 0
COL16
Text Label 1800 5950 0    60   ~ 0
I2C1_SDA
Text Label 1800 6050 0    60   ~ 0
I2C1_SCL
Text Label 1800 2450 0    60   ~ 0
RESET
Text Label 1900 3050 0    60   ~ 0
UART2_RX
Text Label 1900 2950 0    60   ~ 0
UART2_TX
Text Label 1900 3150 0    60   ~ 0
SPI1_NSS
Text Label 1900 3250 0    60   ~ 0
SPI1_SCK
Text Label 1900 3350 0    60   ~ 0
SPI1_MISO
Text Label 1900 3450 0    60   ~ 0
SPI1_MOSI
$Comp
L R R1
U 1 1 58F614BA
P 5300 1850
F 0 "R1" V 5300 1850 50  0000 C CNN
F 1 "~" V 5300 1850 50  0000 C CNN
F 2 "Resistors_SMD:R_0805_HandSoldering" V 5230 1850 50  0001 C CNN
F 3 "" H 5300 1850 50  0000 C CNN
	1    5300 1850
	1    0    0    -1  
$EndComp
$Comp
L R R2
U 1 1 58F61583
P 5400 1850
F 0 "R2" V 5400 1850 50  0000 C CNN
F 1 "~" V 5400 1850 50  0000 C CNN
F 2 "Resistors_SMD:R_0805_HandSoldering" V 5330 1850 50  0001 C CNN
F 3 "" H 5400 1850 50  0000 C CNN
	1    5400 1850
	1    0    0    -1  
$EndComp
Text Label 2100 3850 0    60   ~ 0
LED2
Text Label 2100 3950 0    60   ~ 0
LED1
Text Label 1850 5050 0    60   ~ 0
USB_DP
Text Label 1850 4950 0    60   ~ 0
USB_DM
Text Label 10700 5850 2    60   ~ 0
RESET
Text Label 10700 5650 2    60   ~ 0
SWD_DIO
Text Label 10700 5750 2    60   ~ 0
SWD_CLK
Text Notes 10150 4950 0    60   ~ 0
debug
Text Label 1900 5150 0    60   ~ 0
SWD_DIO
Text Label 1900 5450 0    60   ~ 0
SWD_CLK
Text Label 1850 6150 0    60   ~ 0
BOOTSEL
$Comp
L SW_PUSH SW2
U 1 1 58F6629F
P 9150 5650
F 0 "SW2" H 9300 5760 50  0000 C CNN
F 1 "reset" H 9150 5570 50  0000 C CNN
F 2 "evq-psr:EVQ-PSR02K" H 9150 5650 50  0001 C CNN
F 3 "" H 9150 5650 50  0000 C CNN
	1    9150 5650
	0    -1   1    0   
$EndComp
$Comp
L C C8
U 1 1 58F6634F
P 9400 5650
F 0 "C8" H 9425 5750 50  0000 L CNN
F 1 "C" H 9425 5550 50  0000 L CNN
F 2 "Capacitors_SMD:C_0805_HandSoldering" H 9438 5500 50  0001 C CNN
F 3 "" H 9400 5650 50  0000 C CNN
	1    9400 5650
	1    0    0    1   
$EndComp
$Comp
L GND #PWR015
U 1 1 58F668CB
P 9400 6100
F 0 "#PWR015" H 9400 5850 50  0001 C CNN
F 1 "GND" H 9400 5950 50  0000 C CNN
F 2 "" H 9400 6100 50  0000 C CNN
F 3 "" H 9400 6100 50  0000 C CNN
	1    9400 6100
	1    0    0    -1  
$EndComp
Text Label 9150 5000 3    60   ~ 0
RESET
$Comp
L LED D3
U 1 1 58F6771A
P 9800 3750
F 0 "D3" H 9800 3850 50  0000 C CNN
F 1 "~" H 9800 3650 50  0000 C CNN
F 2 "LEDs:LED_0805" H 9800 3750 50  0001 C CNN
F 3 "" H 9800 3750 50  0000 C CNN
	1    9800 3750
	1    0    0    -1  
$EndComp
$Comp
L LED D4
U 1 1 58F67720
P 9800 4150
F 0 "D4" H 9800 4250 50  0000 C CNN
F 1 "~" H 9800 4050 50  0000 C CNN
F 2 "LEDs:LED_0805" H 9800 4150 50  0001 C CNN
F 3 "" H 9800 4150 50  0000 C CNN
	1    9800 4150
	1    0    0    -1  
$EndComp
$Comp
L R R8
U 1 1 58F67726
P 10250 3750
F 0 "R8" V 10330 3750 50  0000 C CNN
F 1 "~" V 10250 3750 50  0000 C CNN
F 2 "Resistors_SMD:R_0805_HandSoldering" V 10180 3750 50  0001 C CNN
F 3 "" H 10250 3750 50  0000 C CNN
	1    10250 3750
	0    1    1    0   
$EndComp
$Comp
L R R9
U 1 1 58F6772C
P 10250 4150
F 0 "R9" V 10330 4150 50  0000 C CNN
F 1 "~" V 10250 4150 50  0000 C CNN
F 2 "Resistors_SMD:R_0805_HandSoldering" V 10180 4150 50  0001 C CNN
F 3 "" H 10250 4150 50  0000 C CNN
	1    10250 4150
	0    1    1    0   
$EndComp
Text Label 9350 4150 0    60   ~ 0
LED4
Text Label 9350 3750 0    60   ~ 0
LED3
Text Label 2100 3650 0    60   ~ 0
LED4
Text Label 6800 1050 3    60   ~ 0
SPI1_NSS
Text Label 6900 1050 3    60   ~ 0
SPI1_SCK
Text Label 7000 1050 3    60   ~ 0
SPI1_MISO
Text Label 7100 1050 3    60   ~ 0
SPI1_MOSI
NoConn ~ 5800 1250
NoConn ~ 7400 1600
$Comp
L R R7
U 1 1 58F6D210
P 7850 5900
F 0 "R7" V 7930 5900 50  0000 C CNN
F 1 "~" V 7850 5900 50  0000 C CNN
F 2 "Resistors_SMD:R_0805_HandSoldering" V 7780 5900 50  0001 C CNN
F 3 "" H 7850 5900 50  0000 C CNN
	1    7850 5900
	1    0    0    -1  
$EndComp
$Comp
L GND #PWR016
U 1 1 58F6D3F0
P 7850 6150
F 0 "#PWR016" H 7850 5900 50  0001 C CNN
F 1 "GND" H 7850 6000 50  0000 C CNN
F 2 "" H 7850 6150 50  0000 C CNN
F 3 "" H 7850 6150 50  0000 C CNN
	1    7850 6150
	1    0    0    -1  
$EndComp
Text Label 7550 5600 0    60   ~ 0
BOOTSEL
$Comp
L +3V3 #PWR017
U 1 1 58F6D73E
P 8650 5500
F 0 "#PWR017" H 8650 5350 50  0001 C CNN
F 1 "+3V3" H 8650 5640 50  0000 C CNN
F 2 "" H 8650 5500 50  0000 C CNN
F 3 "" H 8650 5500 50  0000 C CNN
	1    8650 5500
	1    0    0    -1  
$EndComp
Text Notes 7600 5050 0    60   ~ 0
boot select
Text Label 2100 3750 0    60   ~ 0
LED3
$Comp
L +3V3 #PWR018
U 1 1 58F70B92
P 10500 3650
F 0 "#PWR018" H 10500 3500 50  0001 C CNN
F 1 "+3V3" H 10500 3790 50  0000 C CNN
F 2 "" H 10500 3650 50  0000 C CNN
F 3 "" H 10500 3650 50  0000 C CNN
	1    10500 3650
	1    0    0    -1  
$EndComp
Wire Wire Line
	1600 5250 2350 5250
Wire Wire Line
	1600 2550 1600 6600
Wire Wire Line
	1600 6450 2350 6450
Connection ~ 1500 5350
Wire Wire Line
	1500 4150 2350 4150
Wire Wire Line
	1500 5350 2350 5350
Wire Wire Line
	1500 1650 1500 6550
Wire Wire Line
	1500 6550 2350 6550
Wire Notes Line
	4350 3000 11200 3000
Wire Wire Line
	10350 2150 10350 2050
Wire Wire Line
	10350 2450 10350 2550
Wire Wire Line
	5600 4200 5800 4200
Wire Wire Line
	5350 3900 5800 3900
Wire Wire Line
	5350 4000 5800 4000
Wire Wire Line
	5250 3600 5250 4100
Wire Wire Line
	5600 4200 5600 4300
Wire Wire Line
	7700 3750 7950 3750
Wire Wire Line
	7700 4150 7950 4150
Connection ~ 8850 3750
Wire Wire Line
	8850 4150 8750 4150
Wire Wire Line
	8750 3750 8850 3750
Wire Wire Line
	8350 3750 8450 3750
Wire Wire Line
	8350 4150 8450 4150
Connection ~ 10750 1400
Wire Wire Line
	10950 1400 10950 1450
Connection ~ 10750 1800
Wire Wire Line
	10950 1800 10950 1750
Wire Notes Line
	4350 4700 11200 4700
Wire Wire Line
	7200 1150 7200 1600
Wire Wire Line
	7300 1150 7300 1600
Wire Wire Line
	10750 1400 10750 1450
Connection ~ 10550 1400
Connection ~ 10550 1800
Wire Wire Line
	10750 1800 10750 1750
Connection ~ 10350 1400
Wire Wire Line
	10550 1400 10550 1450
Connection ~ 10350 1800
Wire Wire Line
	10550 1800 10550 1750
Wire Wire Line
	10350 1800 10350 1750
Wire Wire Line
	10250 1400 10950 1400
Wire Wire Line
	10350 1300 10350 1450
Wire Wire Line
	9150 1300 9150 1400
Connection ~ 9300 1400
Wire Wire Line
	9150 1400 9450 1400
Wire Wire Line
	9300 1450 9300 1400
Connection ~ 9850 1800
Wire Wire Line
	9300 1800 10950 1800
Wire Wire Line
	9300 1750 9300 1800
Wire Wire Line
	9850 1900 9850 1700
Wire Notes Line
	4350 500  4350 7750
Wire Wire Line
	5000 1650 5000 1850
Wire Wire Line
	5000 1850 5200 1850
Wire Wire Line
	5200 1850 5200 1650
Wire Wire Line
	5600 1650 5600 1900
Wire Wire Line
	5300 2000 5300 2500
Wire Wire Line
	5400 2000 5400 2500
Wire Wire Line
	6900 2450 6900 2100
Wire Wire Line
	7000 2450 7000 2100
Wire Wire Line
	7100 2450 7100 2100
Wire Wire Line
	7200 2450 7200 2100
Wire Wire Line
	7300 2450 7300 2100
Wire Wire Line
	7400 2450 7400 2100
Wire Wire Line
	7500 2100 7500 2450
Wire Wire Line
	7600 2450 7600 2100
Wire Wire Line
	7700 2450 7700 2100
Wire Wire Line
	7800 2450 7800 2100
Wire Wire Line
	7900 2450 7900 2100
Wire Wire Line
	8000 2450 8000 2100
Wire Wire Line
	8100 2450 8100 2100
Wire Wire Line
	8200 2450 8200 2100
Wire Wire Line
	8300 2450 8300 2100
Wire Wire Line
	6800 2100 6800 2450
Wire Wire Line
	2350 3550 2050 3550
Wire Wire Line
	2350 1950 2050 1950
Wire Wire Line
	2350 2050 2050 2050
Wire Wire Line
	2350 2150 2050 2150
Wire Wire Line
	2350 2250 2050 2250
Wire Wire Line
	1600 4050 2350 4050
Connection ~ 1600 5250
Connection ~ 1500 4150
Connection ~ 1600 6450
Wire Wire Line
	2000 2750 2350 2750
Wire Wire Line
	2000 2350 2350 2350
Wire Wire Line
	2000 4250 2350 4250
Wire Wire Line
	2000 4350 2350 4350
Wire Wire Line
	2000 4450 2350 4450
Wire Wire Line
	2000 4550 2350 4550
Wire Wire Line
	2350 4650 2000 4650
Wire Wire Line
	2000 4750 2350 4750
Wire Wire Line
	2000 4850 2350 4850
Wire Wire Line
	2000 5550 2350 5550
Wire Wire Line
	2000 5650 2350 5650
Wire Wire Line
	2000 5750 2350 5750
Wire Wire Line
	2000 5850 2350 5850
Wire Wire Line
	2000 6250 2350 6250
Wire Wire Line
	2000 6350 2350 6350
Wire Wire Line
	2350 2850 2000 2850
Wire Wire Line
	1800 6050 2350 6050
Wire Wire Line
	1800 5950 2350 5950
Wire Wire Line
	2350 2450 1800 2450
Wire Wire Line
	2350 2550 1600 2550
Connection ~ 1600 4050
Wire Wire Line
	2350 2650 1500 2650
Connection ~ 1500 2650
Wire Wire Line
	1900 3050 2350 3050
Wire Wire Line
	1900 2950 2350 2950
Wire Wire Line
	2350 3150 1900 3150
Wire Wire Line
	2350 3250 1900 3250
Wire Wire Line
	2350 3350 1900 3350
Wire Wire Line
	2350 3450 1900 3450
Wire Wire Line
	5300 1700 5300 1650
Wire Wire Line
	5400 1700 5400 1650
Wire Wire Line
	2100 3950 2350 3950
Wire Wire Line
	2100 3850 2350 3850
Wire Wire Line
	2350 4950 1850 4950
Wire Wire Line
	2350 5050 1850 5050
Wire Wire Line
	10700 5850 10250 5850
Wire Wire Line
	10700 5650 10250 5650
Wire Wire Line
	10700 5750 10250 5750
Wire Wire Line
	1900 5150 2350 5150
Wire Wire Line
	2350 5450 1900 5450
Wire Wire Line
	2350 6150 1850 6150
Wire Wire Line
	9150 5000 9150 5350
Wire Wire Line
	9150 5350 9400 5350
Wire Wire Line
	9400 5350 9400 5500
Wire Wire Line
	9400 5800 9400 6100
Wire Wire Line
	9400 5950 9150 5950
Connection ~ 9400 5950
Wire Wire Line
	9350 3750 9600 3750
Wire Wire Line
	9350 4150 9600 4150
Connection ~ 10500 3750
Wire Wire Line
	10500 4150 10400 4150
Wire Wire Line
	10400 3750 10500 3750
Wire Wire Line
	10000 3750 10100 3750
Wire Wire Line
	10000 4150 10100 4150
Wire Wire Line
	6800 1050 6800 1600
Wire Wire Line
	6900 1050 6900 1600
Wire Wire Line
	7000 1050 7000 1600
Wire Wire Line
	7100 1050 7100 1600
Wire Notes Line
	7000 3000 7000 6500
Wire Wire Line
	7550 5600 8050 5600
Wire Wire Line
	7850 6150 7850 6050
Connection ~ 7850 5600
Wire Wire Line
	8650 5500 8650 5600
Wire Wire Line
	2100 3750 2350 3750
Wire Wire Line
	2100 3650 2350 3650
Wire Notes Line
	6200 3000 6200 500 
Wire Notes Line
	9700 4700 9700 6500
Wire Wire Line
	8850 4150 8850 3650
Wire Wire Line
	10500 4150 10500 3650
Wire Wire Line
	7850 5750 7850 5600
Wire Wire Line
	7500 1600 7500 1300
Wire Wire Line
	7600 1600 7600 1300
Wire Wire Line
	7700 1600 7700 1300
Wire Wire Line
	7800 1600 7800 1300
Wire Wire Line
	7900 1600 7900 1300
Text Label 7500 1300 3    60   ~ 0
ROW1
Text Label 7900 1300 3    60   ~ 0
ROW5
Text Label 7800 1300 3    60   ~ 0
ROW4
Text Label 7700 1300 3    60   ~ 0
ROW3
Text Label 7600 1300 3    60   ~ 0
ROW2
NoConn ~ 8000 1600
NoConn ~ 8100 1600
NoConn ~ 2350 1850
$Comp
L JUMPER JP1
U 1 1 58F7BD76
P 8350 5600
F 0 "JP1" H 8350 5750 50  0000 C CNN
F 1 "JUMPER" H 8350 5520 50  0000 C CNN
F 2 "w_pin_strip:pin_socket_2" H 8350 5600 50  0001 C CNN
F 3 "" H 8350 5600 50  0000 C CNN
	1    8350 5600
	1    0    0    -1  
$EndComp
Wire Wire Line
	10250 5550 10800 5550
Wire Wire Line
	10800 5550 10800 6000
$Comp
L GND #PWR019
U 1 1 58F69E2E
P 10800 6000
F 0 "#PWR019" H 10800 5750 50  0001 C CNN
F 1 "GND" H 10800 5850 50  0000 C CNN
F 2 "" H 10800 6000 50  0000 C CNN
F 3 "" H 10800 6000 50  0000 C CNN
	1    10800 6000
	1    0    0    -1  
$EndComp
$Comp
L CONN_01X04 P1
U 1 1 58F6A9CF
P 10050 5700
F 0 "P1" H 10050 5950 50  0000 C CNN
F 1 "~" V 10150 5700 50  0000 C CNN
F 2 "Pin_Headers:Pin_Header_Straight_1x04" H 10050 5700 50  0001 C CNN
F 3 "" H 10050 5700 50  0000 C CNN
	1    10050 5700
	-1   0    0    1   
$EndComp
Wire Wire Line
	5250 4100 5800 4100
Wire Wire Line
	8400 2100 8400 2250
$Comp
L GND #PWR?
U 1 1 58F76F3F
P 8400 2250
F 0 "#PWR?" H 8400 2000 50  0001 C CNN
F 1 "GND" H 8400 2100 50  0000 C CNN
F 2 "" H 8400 2250 50  0000 C CNN
F 3 "" H 8400 2250 50  0000 C CNN
	1    8400 2250
	1    0    0    -1  
$EndComp
$Comp
L CONN_02X17 kbd1
U 1 1 58F38E79
P 7600 1850
F 0 "kbd1" H 7600 2750 50  0000 C CNN
F 1 "kbd" V 7600 1850 50  0000 C CNN
F 2 "w_pin_strip:pin_socket_17x2" H 7600 750 50  0001 C CNN
F 3 "" H 7600 750 50  0000 C CNN
	1    7600 1850
	0    -1   -1   0   
$EndComp
Wire Wire Line
	8400 1600 8400 1450
$Comp
L +3V3 #PWR?
U 1 1 58F771DB
P 8400 1450
F 0 "#PWR?" H 8400 1300 50  0001 C CNN
F 1 "+3V3" H 8400 1590 50  0000 C CNN
F 2 "" H 8400 1450 50  0000 C CNN
F 3 "" H 8400 1450 50  0000 C CNN
	1    8400 1450
	1    0    0    -1  
$EndComp
NoConn ~ 8200 1600
NoConn ~ 8300 1600
$EndSCHEMATC
